<svg width="296" height="296" viewBox="0 0 296 296" fill="none" xmlns="http://www.w3.org/2000/svg">
<path d="M247.331 293.501L43.3847 293.501C20.4927 293.501 1.76294 274.771 1.76294 251.879L1.76294 47.9328C1.76294 25.0408 20.4927 6.31104 43.3847 6.31104L247.331 6.31104C270.223 6.31104 288.953 25.0408 288.953 47.9328L288.953 251.879C288.953 274.771 270.223 293.501 247.331 293.501Z" fill="#1A60F7"/>
<path d="M145.359 57.4717C104.778 57.4717 71.8274 90.0754 70.7869 130.31L70.7869 242.342L106.859 242.342L106.859 196.211C117.958 203.148 131.138 206.963 145.359 206.963C186.634 206.963 219.931 173.666 219.931 132.391C219.931 91.1159 186.634 57.4717 145.359 57.4717ZM145.359 170.544C124.201 170.544 106.859 153.202 106.859 132.044C106.859 110.886 124.201 93.5439 145.359 93.5439C166.517 93.5439 183.859 110.886 183.859 132.044C183.859 153.202 166.517 170.544 145.359 170.544Z" fill="white"/>
</svg>
